{
  "arch": "x86_64",
  "build": "py36_0",
  "build_number": 0,
  "depends": [
    "nltk >=3.1",
    "python 3.6*"
  ],
  "license": "MIT",
  "license_family": "MIT",
  "name": "textblob",
  "platform": "win",
  "subdir": "win-64",
  "version": "0.12.0"
}